{
  "formatVersion": 1,
  "database": {
    "version": 1,
    "identityHash": "a87656d6de5d8f07167b9553750ce380",
    "entities": [
      {
        "tableName": "chat_messages",
        "createSql": "CREATE TABLE IF NOT EXISTS `${TABLE_NAME}` (`messageId` TEXT NOT NULL, `chatId` TEXT NOT NULL, `timestamp` INTEGER NOT NULL, `userId` TEXT NOT NULL, `userName` TEXT, `contentType` TEXT NOT NULL, `content` TEXT NOT NULL, PRIMARY KEY(`chatId`, `messageId`))",
        "fields": [
          {
            "fieldPath": "messageId",
            "columnName": "messageId",
            "affinity": "TEXT",
            "notNull": true
          },
          {
            "fieldPath": "chatId",
            "columnName": "chatId",
            "affinity": "TEXT",
            "notNull": true
          },
          {
            "fieldPath": "timestamp",
            "columnName": "timestamp",
            "affinity": "INTEGER",
            "notNull": true
          },
          {
            "fieldPath": "userId",
            "columnName": "userId",
            "affinity": "TEXT",
            "notNull": true
          },
          {
            "fieldPath": "userName",
            "columnName": "userName",
            "affinity": "TEXT",
            "notNull": false
          },
          {
            "fieldPath": "contentType",
            "columnName": "contentType",
            "affinity": "TEXT",
            "notNull": true
          },
          {
            "fieldPath": "content",
            "columnName": "content",
            "affinity": "TEXT",
            "notNull": true
          }
        ],
        "primaryKey": {
          "columnNames": [
            "chatId",
            "messageId"
          ],
          "autoGenerate": false
        },
        "indices": [
          {
            "name": "index_chat_messages_chatId_timestamp_contentType",
            "unique": false,
            "columnNames": [
              "chatId",
              "timestamp",
              "contentType"
            ],
            "createSql": "CREATE  INDEX `index_chat_messages_chatId_timestamp_contentType` ON `${TABLE_NAME}` (`chatId`, `timestamp`, `contentType`)"
          }
        ],
        "foreignKeys": []
      },
      {
        "tableName": "users",
        "createSql": "CREATE TABLE IF NOT EXISTS `${TABLE_NAME}` (`uId` TEXT NOT NULL, `displayName` TEXT NOT NULL, `fullName` TEXT NOT NULL, `about` TEXT NOT NULL, `gender` TEXT NOT NULL, `age` INTEGER NOT NULL, `friends` INTEGER NOT NULL, `parties` INTEGER NOT NULL, PRIMARY KEY(`uId`))",
        "fields": [
          {
            "fieldPath": "uId",
            "columnName": "uId",
            "affinity": "TEXT",
            "notNull": true
          },
          {
            "fieldPath": "displayName",
            "columnName": "displayName",
            "affinity": "TEXT",
            "notNull": true
          },
          {
            "fieldPath": "fullName",
            "columnName": "fullName",
            "affinity": "TEXT",
            "notNull": true
          },
          {
            "fieldPath": "about",
            "columnName": "about",
            "affinity": "TEXT",
            "notNull": true
          },
          {
            "fieldPath": "gender",
            "columnName": "gender",
            "affinity": "TEXT",
            "notNull": true
          },
          {
            "fieldPath": "age",
            "columnName": "age",
            "affinity": "INTEGER",
            "notNull": true
          },
          {
            "fieldPath": "friends",
            "columnName": "friends",
            "affinity": "INTEGER",
            "notNull": true
          },
          {
            "fieldPath": "parties",
            "columnName": "parties",
            "affinity": "INTEGER",
            "notNull": true
          }
        ],
        "primaryKey": {
          "columnNames": [
            "uId"
          ],
          "autoGenerate": false
        },
        "indices": [],
        "foreignKeys": []
      },
      {
        "tableName": "users_photos",
        "createSql": "CREATE TABLE IF NOT EXISTS `${TABLE_NAME}` (`photoUserId` TEXT NOT NULL, `photoId` TEXT NOT NULL, `userPhotoIndex` INTEGER NOT NULL, `userPhotoUri` TEXT, `userPhotoThumb` TEXT, `userPhotoUploadStatus` TEXT NOT NULL, PRIMARY KEY(`photoUserId`, `userPhotoIndex`))",
        "fields": [
          {
            "fieldPath": "photoUserId",
            "columnName": "photoUserId",
            "affinity": "TEXT",
            "notNull": true
          },
          {
            "fieldPath": "photoId",
            "columnName": "photoId",
            "affinity": "TEXT",
            "notNull": true
          },
          {
            "fieldPath": "userPhotoIndex",
            "columnName": "userPhotoIndex",
            "affinity": "INTEGER",
            "notNull": true
          },
          {
            "fieldPath": "userPhotoUri",
            "columnName": "userPhotoUri",
            "affinity": "TEXT",
            "notNull": false
          },
          {
            "fieldPath": "userPhotoThumb",
            "columnName": "userPhotoThumb",
            "affinity": "TEXT",
            "notNull": false
          },
          {
            "fieldPath": "userPhotoUploadStatus",
            "columnName": "userPhotoUploadStatus",
            "affinity": "TEXT",
            "notNull": true
          }
        ],
        "primaryKey": {
          "columnNames": [
            "photoUserId",
            "userPhotoIndex"
          ],
          "autoGenerate": false
        },
        "indices": [
          {
            "name": "index_users_photos_photoId",
            "unique": false,
            "columnNames": [
              "photoId"
            ],
            "createSql": "CREATE  INDEX `index_users_photos_photoId` ON `${TABLE_NAME}` (`photoId`)"
          }
        ],
        "foreignKeys": []
      },
      {
        "tableName": "users_favourite_places",
        "createSql": "CREATE TABLE IF NOT EXISTS `${TABLE_NAME}` (`favouritePlaceId` TEXT NOT NULL, `favouritePlaceUserId` TEXT NOT NULL, `favouritePlaceIndex` INTEGER NOT NULL, `name` TEXT NOT NULL, `address` TEXT NOT NULL, `googleMapsId` TEXT NOT NULL, `latitude` REAL NOT NULL, `longitude` REAL NOT NULL, PRIMARY KEY(`favouritePlaceUserId`, `favouritePlaceIndex`))",
        "fields": [
          {
            "fieldPath": "favouritePlaceId",
            "columnName": "favouritePlaceId",
            "affinity": "TEXT",
            "notNull": true
          },
          {
            "fieldPath": "favouritePlaceUserId",
            "columnName": "favouritePlaceUserId",
            "affinity": "TEXT",
            "notNull": true
          },
          {
            "fieldPath": "favouritePlaceIndex",
            "columnName": "favouritePlaceIndex",
            "affinity": "INTEGER",
            "notNull": true
          },
          {
            "fieldPath": "name",
            "columnName": "name",
            "affinity": "TEXT",
            "notNull": true
          },
          {
            "fieldPath": "address",
            "columnName": "address",
            "affinity": "TEXT",
            "notNull": true
          },
          {
            "fieldPath": "googleMapsId",
            "columnName": "googleMapsId",
            "affinity": "TEXT",
            "notNull": true
          },
          {
            "fieldPath": "latitude",
            "columnName": "latitude",
            "affinity": "REAL",
            "notNull": true
          },
          {
            "fieldPath": "longitude",
            "columnName": "longitude",
            "affinity": "REAL",
            "notNull": true
          }
        ],
        "primaryKey": {
          "columnNames": [
            "favouritePlaceUserId",
            "favouritePlaceIndex"
          ],
          "autoGenerate": false
        },
        "indices": [
          {
            "name": "index_users_favourite_places_favouritePlaceUserId",
            "unique": false,
            "columnNames": [
              "favouritePlaceUserId"
            ],
            "createSql": "CREATE  INDEX `index_users_favourite_places_favouritePlaceUserId` ON `${TABLE_NAME}` (`favouritePlaceUserId`)"
          }
        ],
        "foreignKeys": []
      },
      {
        "tableName": "users_favourite_treats",
        "createSql": "CREATE TABLE IF NOT EXISTS `${TABLE_NAME}` (`favouriteTreatId` TEXT NOT NULL, `favouriteTreatUserId` TEXT NOT NULL, `favouriteTreatIndex` INTEGER NOT NULL, `favouriteTreatName` TEXT, PRIMARY KEY(`favouriteTreatUserId`, `favouriteTreatIndex`))",
        "fields": [
          {
            "fieldPath": "favouriteTreatId",
            "columnName": "favouriteTreatId",
            "affinity": "TEXT",
            "notNull": true
          },
          {
            "fieldPath": "favouriteTreatUserId",
            "columnName": "favouriteTreatUserId",
            "affinity": "TEXT",
            "notNull": true
          },
          {
            "fieldPath": "favouriteTreatIndex",
            "columnName": "favouriteTreatIndex",
            "affinity": "INTEGER",
            "notNull": true
          },
          {
            "fieldPath": "favouriteTreatName",
            "columnName": "favouriteTreatName",
            "affinity": "TEXT",
            "notNull": false
          }
        ],
        "primaryKey": {
          "columnNames": [
            "favouriteTreatUserId",
            "favouriteTreatIndex"
          ],
          "autoGenerate": false
        },
        "indices": [
          {
            "name": "index_users_favourite_treats_favouriteTreatUserId",
            "unique": false,
            "columnNames": [
              "favouriteTreatUserId"
            ],
            "createSql": "CREATE  INDEX `index_users_favourite_treats_favouriteTreatUserId` ON `${TABLE_NAME}` (`favouriteTreatUserId`)"
          }
        ],
        "foreignKeys": []
      }
    ],
    "setupQueries": [
      "CREATE TABLE IF NOT EXISTS room_master_table (id INTEGER PRIMARY KEY,identity_hash TEXT)",
      "INSERT OR REPLACE INTO room_master_table (id,identity_hash) VALUES(42, \"a87656d6de5d8f07167b9553750ce380\")"
    ]
  }
}